%YAML 1.1
%TAG !u! tag:unity3d.com,2011:
--- !u!1045 &1
EditorBuildSettings:
  m_ObjectHideFlags: 0
  serializedVersion: 2
  m_Scenes:
  - enabled: 1
    path: Assets/Scenes/Menu.unity
    guid: 89545c806900d754199b8f9d812c0e19
  - enabled: 1
    path: Assets/Scenes/firstScene.unity
    guid: 4bedb829823287e47b7c42500b772d66
  - enabled: 1
    path: Assets/Scenes/BossScene.unity
    guid: 2dea9e5edb4201f4aabff9faad342352
  - enabled: 1
    path: Assets/Scenes/Winning.unity
    guid: 66a53a1a51811114ab1dbd5797393ec1
  - enabled: 1
    path: Assets/Scenes/GameOver.unity
    guid: 1414f2a8adbcc8a4a8e4a34571797af3
  m_configObjects: {}
